{"meta": {"limit": 50, "next": "/api/ig_photos/photo/?format=json&limit=50&offset=50", "offset": 0, "previous": null, "total_count": 136}, "objects": [{"alt_text": "Louie, dressed as Fred Flintstone", "id": 150, "photo": "https://static.startribune.com/news/projects-staging/ig-photos/media/Screen_Shot_2019-10-30_at_2.40.48_PM.png", "photo_slug": "PET", "resource_uri": "/api/ig_photos/photo/150/", "uploaded_at": "2019-10-30T21:42:23.906277", "url": "http://www.startribune.com/adorable-cuteness-and-spooktacular-creativity-the-winners-of-the-star-tribune-halloween-pet-costume-contest/563846062/"}, {"alt_text": "Laura Zebuhr and Jana Shortal", "id": 149, "photo": "https://static.startribune.com/news/projects-staging/ig-photos/media/jana.jpeg", "photo_slug": "JANA", "resource_uri": "/api/ig_photos/photo/149/", "uploaded_at": "2019-10-30T21:36:55.742926", "url": "http://www.startribune.com/kare-s-jana-shortal-and-fiancee-open-the-door-to-their-renovated-minneapolis-house/563860932/"}, {"alt_text": "Sun rises behind North Breakwater Lighthouse", "id": 148, "photo": "https://static.startribune.com/news/projects-staging/ig-photos/media/sunset.jpg", "photo_slug": "SUNRISE", "resource_uri": "/api/ig_photos/photo/148/", "uploaded_at": "2019-10-30T21:35:28.631002", "url": "http://www.startribune.com/the-setting-moon-and-the-rising-sun-over-canal-park-in-duluth/563911201/"}, {"alt_text": "Gophers celebrate win", "id": 147, "photo": "https://static.startribune.com/news/projects-staging/ig-photos/media/Screen_Shot_2019-10-30_at_2.33.06_PM.png", "photo_slug": "UFOT", "resource_uri": "/api/ig_photos/photo/147/", "uploaded_at": "2019-10-30T21:33:27.677036", "url": "http://www.startribune.com/gophers-steamroll-maryland-52-10-to-remain-undefeated/563920762/"}, {"alt_text": "Puddles on the Stone Arch Bridge", "id": 146, "photo": "https://static.startribune.com/news/projects-staging/ig-photos/media/Screen_Shot_2019-10-30_at_2.07.39_PM.png", "photo_slug": "FEATURE", "resource_uri": "/api/ig_photos/photo/146/", "uploaded_at": "2019-10-30T21:31:56.931829", "url": "https://www.instagram.com/p/B4FezwLFCDC/"}, {"alt_text": "Hillary and Chelsea Clinton at book event", "id": 145, "photo": "https://static.startribune.com/news/projects-staging/ig-photos/media/clinton1.jpeg", "photo_slug": "CLINTON", "resource_uri": "/api/ig_photos/photo/145/", "uploaded_at": "2019-10-25T10:17:09.763270", "url": "http://www.startribune.com/clintons-eschew-controversy-focus-on-book-s-positive-message-in-minneapolis-appearance/563821122/"}, {"alt_text": "Nelly Tay Godoy protests", "id": 144, "photo": "https://static.startribune.com/news/projects-staging/ig-photos/media/5B01B01C-01BC-4815-89C9-2619ACE8176F.jpeg", "photo_slug": "Protest", "resource_uri": "/api/ig_photos/photo/144/", "uploaded_at": "2019-10-25T06:50:27.037836", "url": "http://www.startribune.com/protesters-to-gather-outside-u-s-bank-stadium-before-vikings-game-to-oppose-washington-redskins-name/563785352/#2"}, {"alt_text": "Dalvin Cook before the game", "id": 143, "photo": "https://static.startribune.com/news/projects-staging/ig-photos/media/6FFBD142-E197-4305-BAF5-CA31355649A4.jpeg", "photo_slug": "Vike", "resource_uri": "/api/ig_photos/photo/143/", "uploaded_at": "2019-10-25T06:48:48.722182", "url": "http://www.startribune.com/vikings-avoid-costly-mistakes-control-game-to-defeat-washington/563824392/"}, {"alt_text": "Aimee Witteman rides along West River Parkway", "id": 142, "photo": "https://static.startribune.com/news/projects-staging/ig-photos/media/Image-1_1.png", "photo_slug": "BIKE", "resource_uri": "/api/ig_photos/photo/142/", "uploaded_at": "2019-10-24T13:55:47.849587", "url": "http://www.startribune.com/minnesota-moms-take-to-the-streets-on-cargo-bikes/563724472/"}, {"alt_text": "Sen. Amy Klobuchar", "id": 141, "photo": "https://static.startribune.com/news/projects-staging/ig-photos/media/President_Trump_prodded_Ukraine_leader_to_investigate_Joe_Biden_memo_says.png", "photo_slug": "KLOB", "resource_uri": "/api/ig_photos/photo/141/", "uploaded_at": "2019-10-24T13:51:28.615642", "url": "http://www.startribune.com/amy-klobuchar-qualifies-for-next-democratic-debate/563775112/"}, {"alt_text": "Fiery red sunrise in Roseville", "id": 139, "photo": "https://static.startribune.com/news/projects-staging/ig-photos/media/Image-1.png", "photo_slug": "SUNRISE", "resource_uri": "/api/ig_photos/photo/139/", "uploaded_at": "2019-10-24T13:30:55.231609", "url": "https://www.instagram.com/p/B3-hn3Uldyw/"}, {"alt_text": "Cindy Berg walks her dog in Gold Medal Park", "id": 138, "photo": "https://static.startribune.com/news/projects-staging/ig-photos/media/Screen_Shot_2019-10-24_at_8.28.46_AM.png", "photo_slug": "RAIN", "resource_uri": "/api/ig_photos/photo/138/", "uploaded_at": "2019-10-24T13:29:51.729571", "url": "http://www.startribune.com/when-will-it-finally-stop-raining-in-minnesota-when-it-snows/563667912/"}, {"alt_text": "A surfer rides a wave on Lake Superior", "id": 137, "photo": "https://static.startribune.com/news/projects-staging/ig-photos/media/Screen_Shot_2019-10-24_at_8.27.15_AM.png", "photo_slug": "WAVE", "resource_uri": "/api/ig_photos/photo/137/", "uploaded_at": "2019-10-24T13:28:24.609166", "url": "http://www.startribune.com/gales-of-october-strong-winds-whip-up-lake-superior-knock-down-power-lines/563588392/"}, {"alt_text": "Dan Pearson reflects on the loss of his son", "id": 136, "photo": "https://static.startribune.com/news/projects-staging/ig-photos/media/opioid.jpg", "photo_slug": "opioid", "resource_uri": "/api/ig_photos/photo/136/", "uploaded_at": "2019-10-20T19:43:39.848095", "url": "http://www.startribune.com/out-of-father-s-sorrow-fight-against-opioids/563455862"}, {"alt_text": "Former U.S. Sen. Al Franken", "id": 135, "photo": "https://static.startribune.com/news/projects-staging/ig-photos/media/08_1009731761__25FRANK101819_56489747.JPG", "photo_slug": "FRANKEN", "resource_uri": "/api/ig_photos/photo/135/", "uploaded_at": "2019-10-20T19:42:34.548932", "url": "http://www.startribune.com/after-fall-from-grace-former-sen-al-franken-rebuilds-his-life/563454462/"}, {"alt_text": "A pilot walks by Hi-Lo Diner at MSP", "id": 134, "photo": "https://static.startribune.com/news/projects-staging/ig-photos/media/08_1009694147_13AIRPORT102019_56453478.JPG", "photo_slug": "MSP", "resource_uri": "/api/ig_photos/photo/134/", "uploaded_at": "2019-10-20T19:35:53.195965", "url": "http://www.startribune.com/twin-cities-restaurants-are-bringing-local-flavor-to-msp-airport/563319592/"}, {"alt_text": "Fall color tree canopy in Minneapolis", "id": 132, "photo": "https://static.startribune.com/news/projects-staging/ig-photos/media/Screen_Shot_2019-10-20_at_1.49.52_PM.png", "photo_slug": "fallcolor2", "resource_uri": "/api/ig_photos/photo/132/", "uploaded_at": "2019-10-20T18:50:25.004083", "url": "https://www.instagram.com/p/B32ZRziFMkQ/"}, {"alt_text": "Luca eyes an African millipede", "id": 131, "photo": "https://static.startribune.com/news/projects-staging/ig-photos/media/creepy.jpg", "photo_slug": "creepy", "resource_uri": "/api/ig_photos/photo/131/", "uploaded_at": "2019-10-20T18:49:34.808633", "url": "http://www.startribune.com/creepy-crawlies-at-como-zoo-delight-kids/563400572/"}, {"alt_text": "Fall color along the Mississippi River", "id": 130, "photo": "https://static.startribune.com/news/projects-staging/ig-photos/media/Screen_Shot_2019-10-20_at_1.47.46_PM.png", "photo_slug": "fallcolor", "resource_uri": "/api/ig_photos/photo/130/", "uploaded_at": "2019-10-20T18:48:32.108357", "url": "https://www.instagram.com/p/B3xIKexlGVS/"}, {"alt_text": "City Club Apartments deck", "id": 129, "photo": "https://static.startribune.com/news/projects-staging/ig-photos/media/08_1009765313_15APTS102119_56502245.JPG", "photo_slug": "APTS", "resource_uri": "/api/ig_photos/photo/129/", "uploaded_at": "2019-10-17T19:18:52.615472", "url": "http://www.startribune.com/wave-of-the-future-downtown-minneapolis-micro-units-rent-for-1-250-a-month/563253662/"}, {"alt_text": "Scott Semo and an aide", "id": 128, "photo": "https://static.startribune.com/news/projects-staging/ig-photos/media/LIFE-MED-NEEDS-ASSESSMENTS-2-MS_56497168.JPG", "photo_slug": "WAIVER", "resource_uri": "/api/ig_photos/photo/128/", "uploaded_at": "2019-10-17T13:59:21.119520", "url": "http://www.startribune.com/high-stakes-assessments-can-upend-lives-of-minnesota-families-with-disabilities/558453432/"}, {"alt_text": "Esko High football team before the game", "id": 127, "photo": "https://static.startribune.com/news/projects-staging/ig-photos/media/ekso.jpg", "photo_slug": "ESKO", "resource_uri": "/api/ig_photos/photo/127/", "uploaded_at": "2019-10-17T13:52:47.462258", "url": "http://www.startribune.com/esko-mourns-fallen-football-player-at-final-home-game/563254572/"}, {"alt_text": "Former Vice President Walter Mondale", "id": 126, "photo": "https://static.startribune.com/news/projects-staging/ig-photos/media/mndale.jpeg", "photo_slug": "MONDALE", "resource_uri": "/api/ig_photos/photo/126/", "uploaded_at": "2019-10-17T13:48:39.540217", "url": "http://www.startribune.com/minnesota-names-five-st-croix-river-spots-for-former-vice-president-walter-mondale/563174942/"}, {"alt_text": "Hannah Aylward and Shane Burcaw", "id": 124, "photo": "https://static.startribune.com/news/projects-staging/ig-photos/media/_56391469.JPG", "photo_slug": "INTERABLED", "resource_uri": "/api/ig_photos/photo/124/", "uploaded_at": "2019-10-15T20:52:52.329051", "url": "http://www.startribune.com/how-interabled-minnesota-couple-squirmy-and-grubs-became-an-internet-sensation/562107652/"}, {"alt_text": "Stefon Diggs, after scoring third touchdown", "id": 123, "photo": "https://static.startribune.com/news/projects-staging/ig-photos/media/08_1009274809_13JHVIKE101419_56483023.JPG", "photo_slug": "VIKE", "resource_uri": "/api/ig_photos/photo/123/", "uploaded_at": "2019-10-15T20:51:01.151508", "url": "http://www.startribune.com/fly-vikings-fly-stefon-diggs-has-big-game-as-vikings-follow-script-to-smack-eagles/563001792/"}, {"alt_text": "Mohamed Ibrahim after a touchdown.", "id": 122, "photo": "https://static.startribune.com/news/projects-staging/ig-photos/media/27366B31-AFA7-49B9-8BD1-9FACE267E332.jpeg", "photo_slug": "uUFOT", "resource_uri": "/api/ig_photos/photo/122/", "uploaded_at": "2019-10-13T03:19:18.753556", "url": "http://www.startribune.com/gophers-trample-nebraska-34-7-to-remain-undefeated/562952782/#1"}, {"alt_text": "Matthew Trice played the saxophone outside rally", "id": 121, "photo": "https://static.startribune.com/news/projects-staging/ig-photos/media/08_1008070520_1BROOKS101319_56467688.JPG", "photo_slug": "TRUMP", "resource_uri": "/api/ig_photos/photo/121/", "uploaded_at": "2019-10-12T14:06:39.192036", "url": "http://www.startribune.com/at-trump-s-minneapolis-rally-a-few-moments-of-peace/562861272/"}, {"alt_text": "An eagle takes flight near Grand Marais", "id": 120, "photo": "https://static.startribune.com/news/projects-staging/ig-photos/media/IMG_6326.jpg", "photo_slug": "EAGLE", "resource_uri": "/api/ig_photos/photo/120/", "uploaded_at": "2019-10-12T14:04:10.189390", "url": "https://www.instagram.com/p/B3fsTtqFh-D/"}, {"alt_text": "President Trump at Minneapolis rally", "id": 119, "photo": "https://static.startribune.com/news/projects-staging/ig-photos/media/08_1009719216__12PREZ101119_56462754.JPG", "photo_slug": "TRUMP", "resource_uri": "/api/ig_photos/photo/119/", "uploaded_at": "2019-10-12T14:00:14.217227", "url": "http://www.startribune.com/trump-tells-supporters-he-ll-win-minnesota-in-2020/562779722/"}, {"alt_text": "Trump backer and protester embrace", "id": 118, "photo": "https://static.startribune.com/news/projects-staging/ig-photos/media/08_1009719216_11PREZ101119_56460446.JPG", "photo_slug": "TRUMP", "resource_uri": "/api/ig_photos/photo/118/", "uploaded_at": "2019-10-12T13:58:33.871202", "url": "http://live.startribune.com/Event/Live_Fans_protesters_descend_on_Minneapolis_for_Trump_campaign_rally?Page=0"}, {"alt_text": "Restoration Hardware\u00e2\u20ac\u2122s restaurant", "id": 117, "photo": "https://static.startribune.com/news/projects-staging/ig-photos/media/CCA70160-363D-4483-8E4D-3A80AD1F82A4.jpeg", "photo_slug": "Restoration", "resource_uri": "/api/ig_photos/photo/117/", "uploaded_at": "2019-10-10T15:06:10.901644", "url": "http://www.startribune.com/a-peek-inside-edina-s-swankiest-new-rooftop-restaurant/562523211/"}, {"alt_text": "Lizzo performs at the Armory", "id": 116, "photo": "https://static.startribune.com/news/projects-staging/ig-photos/media/43E0966D-316D-4CBB-AD9F-385B0A89B817.jpeg", "photo_slug": "Lizzo", "resource_uri": "/api/ig_photos/photo/116/", "uploaded_at": "2019-10-10T03:16:54.591131", "url": "http://www.startribune.com/lizzo-100-that-big-a-deal-as-she-make-a-triumphant-return-to-minneapolis/562666732/"}, {"alt_text": "Sunisa Lee at the gymnastics world championships", "id": 115, "photo": "https://static.startribune.com/news/projects-staging/ig-photos/media/GERMANY_GYMNASTICS_WORLD_CHAMPIONSHIPS_56446148.JPG", "photo_slug": "SUNISA", "resource_uri": "/api/ig_photos/photo/115/", "uploaded_at": "2019-10-09T17:28:06.522854", "url": "http://www.startribune.com/st-paul-s-sunisa-lee-adds-world-gymnastics-gold-medal-to-her-remarkable-season/562627102/"}, {"alt_text": "Runners at the eight mile mark", "id": 114, "photo": "https://static.startribune.com/news/projects-staging/ig-photos/media/08_1009528647_04MARA100719_56427619.JPG", "photo_slug": "MARA", "resource_uri": "/api/ig_photos/photo/114/", "uploaded_at": "2019-10-09T16:58:32.533885", "url": "http://www.startribune.com/dominic-ondoro-julia-kohnen-win-twin-cities-marathon/562342752/"}, {"alt_text": "Nelson Cruz before Game 1 of series", "id": 113, "photo": "https://static.startribune.com/news/projects-staging/ig-photos/media/08_1009666581_10TWIN100519_56413373.JPG", "photo_slug": "TWIN", "resource_uri": "/api/ig_photos/photo/113/", "uploaded_at": "2019-10-09T16:56:40.951794", "url": "http://www.startribune.com/yankees-slam-twins-8-2-to-take-2-0-lead-in-alds/562297842/"}, {"alt_text": "Gia Vang stands on Stone Arch Bridge", "id": 112, "photo": "https://static.startribune.com/news/projects-staging/ig-photos/media/giavang.jpg", "photo_slug": "VANG", "resource_uri": "/api/ig_photos/photo/112/", "uploaded_at": "2019-10-09T16:54:10.479699", "url": "http://www.startribune.com/gia-vang-the-twin-cities-first-hmong-american-newsanchor-on-adapting-to-minnesota-culture/561323592/"}, {"alt_text": "Funeral mass for Archbishop Harry Flynn", "id": 111, "photo": "https://static.startribune.com/news/projects-staging/ig-photos/media/08_1009644571__007FLYNN100119_56377999.JPG", "photo_slug": "arch", "resource_uri": "/api/ig_photos/photo/111/", "uploaded_at": "2019-10-01T15:00:43.454490", "url": "http://www.startribune.com/st-paul-archbishop-harry-flynn-laid-to-rest/561818202/"}, {"alt_text": "Wreckage after car-jacking crash", "id": 110, "photo": "https://static.startribune.com/news/projects-staging/ig-photos/media/08__1009668197_003PEDS100119_56380673.JPG", "photo_slug": "crash", "resource_uri": "/api/ig_photos/photo/110/", "uploaded_at": "2019-10-01T14:38:40.780866", "url": "http://www.startribune.com/1-of-5-hurt-when-carjacker-jumped-lake-st-curb-and-crashed-remains-in-critical-condition/561870622/"}, {"alt_text": "Jake Cave after his home run", "id": 109, "photo": "https://static.startribune.com/news/projects-staging/ig-photos/media/8D9F3265-C0FA-4CF3-A95A-C2120D27F5C2.jpeg", "photo_slug": "Twin", "resource_uri": "/api/ig_photos/photo/109/", "uploaded_at": "2019-09-29T22:31:25.340822", "url": "http://www.startribune.com/twins-lose-season-finale-5-4-but-win-mlb-home-run-title-with-307/561719442/"}, {"alt_text": "White tiger Simon creeps in the grass at the Wildcat Sanctuary", "id": 108, "photo": "https://static.startribune.com/news/projects-staging/ig-photos/media/08_009127476_42MAGESSAY090219_55905410.JPG", "photo_slug": "tiger", "resource_uri": "/api/ig_photos/photo/108/", "uploaded_at": "2019-09-28T20:50:06.086466", "url": "http://www.startribune.com/wild-animals-and-the-minnesotans-who-care-for-them/561427661/"}, {"alt_text": "A diver explores a Lake Superior shipwreck", "id": 107, "photo": "https://static.startribune.com/news/projects-staging/ig-photos/media/08_1009232522_80MAGDIVERS092219_55882088.JPG", "photo_slug": "SHIPWRECK", "resource_uri": "/api/ig_photos/photo/107/", "uploaded_at": "2019-09-26T15:16:23.521024", "url": "http://www.startribune.com/discover-lost-shipwrecks-in-lake-superior/514224542/"}, {"alt_text": "Twins celebrate clinching the division", "id": 106, "photo": "https://static.startribune.com/news/projects-staging/ig-photos/media/twins.jpg", "photo_slug": "Twins", "resource_uri": "/api/ig_photos/photo/106/", "uploaded_at": "2019-09-26T15:12:29.417242", "url": "http://www.startribune.com/twins-win-5-1-in-detroit-to-clinch-al-central-title/561381202/"}, {"alt_text": "Surly's head brewer Josh Lemke", "id": 104, "photo": "https://static.startribune.com/news/projects-staging/ig-photos/media/08_1009577825_3SURLY092619_56333979.JPG", "photo_slug": "SURLY", "resource_uri": "/api/ig_photos/photo/104/", "uploaded_at": "2019-09-25T20:48:04.280814", "url": "http://www.startribune.com/surly-darkness-day-approaches-a-sneak-peek-and-taste-of-darkness-2019/560774621/"}, {"alt_text": "Karen Jenson", "id": 103, "photo": "https://static.startribune.com/news/projects-staging/ig-photos/media/08_1009080715_480MAGSECRET092219_55840404.JPG", "photo_slug": "rosemaling", "resource_uri": "/api/ig_photos/photo/103/", "uploaded_at": "2019-09-24T20:29:20.788718", "url": "http://www.startribune.com/this-extreme-example-of-the-norwegian-art-form-of-rosemaling-is-enshrined-in-a-tiny-minnesota-town/561245482/"}, {"alt_text": "Jen Chafee snuggled with her daughters", "id": 102, "photo": "https://static.startribune.com/news/projects-staging/ig-photos/media/08_1009578092_01DEPLOY092119_56287095.JPG", "photo_slug": "deploy", "resource_uri": "/api/ig_photos/photo/102/", "uploaded_at": "2019-09-21T13:50:53.797751", "url": "http://www.startribune.com/deployment-is-just-a-part-of-military-couple-s-lives/560925522/"}, {"alt_text": "Joan Gabel greets well-wishers", "id": 101, "photo": "https://static.startribune.com/news/projects-staging/ig-photos/media/08_1009571041_09GABEL092119_56288831.JPG", "photo_slug": "gabel", "resource_uri": "/api/ig_photos/photo/101/", "uploaded_at": "2019-09-21T13:50:20.011266", "url": "http://www.startribune.com/university-of-minnesota-installs-joan-gabel-as-its-17th-president/560891042/"}, {"alt_text": "Twins celebrate the win", "id": 100, "photo": "https://static.startribune.com/news/projects-staging/ig-photos/media/08_1009320969_026TWIN092119_56293181.JPG", "photo_slug": "Twins", "resource_uri": "/api/ig_photos/photo/100/", "uploaded_at": "2019-09-21T13:23:47.945449", "url": "http://www.startribune.com/rookies-carry-twins-to-4-3-victory-over-kansas-city/560938082/"}, {"alt_text": "Protesters during a \"die-in\" at the Capitol", "id": 98, "photo": "https://static.startribune.com/news/projects-staging/ig-photos/media/08_1009541031_11CLIMATE092119_56290031.JPG", "photo_slug": "climate", "resource_uri": "/api/ig_photos/photo/98/", "uploaded_at": "2019-09-20T20:32:40.990625", "url": "http://www.startribune.com/students-to-lead-climate-change-protest-in-st-paul-today/560886322/"}, {"alt_text": "People pray outside church", "id": 96, "photo": "https://static.startribune.com/news/projects-staging/ig-photos/media/08_1009584856_002SHOT092019_56281173.JPG", "photo_slug": "SHOT", "resource_uri": "/api/ig_photos/photo/96/", "uploaded_at": "2019-09-19T23:08:20.099941", "url": "http://www.startribune.com/st-paul-investigating-20th-homicide-of-the-year/560735522/"}, {"alt_text": "Lucy Keepper with homemade slime", "id": 95, "photo": "https://static.startribune.com/news/projects-staging/ig-photos/media/08_1009533672SLIME091919_56221021.JPG", "photo_slug": "SLIME", "resource_uri": "/api/ig_photos/photo/95/", "uploaded_at": "2019-09-19T17:04:18.961741", "url": "http://www.startribune.com/edina-teen-to-host-slimesota-a-minnesota-festival-for-slime-lovers/560676092/"}]}